<svg width="24" height="24" viewBox="0 0 24 24" fill="none" xmlns="http://www.w3.org/2000/svg">
<path d="M21 11.5C21.0034 12.8199 20.6951 14.1219 20.1 15.3C19.3944 16.7118 18.3098 17.8992 16.9674 18.7293C15.6251 19.5594 14.0782 19.9994 12.5 20C11.1801 20.0035 9.87812 19.6951 8.7 19.1L3 21L4.9 15.3C4.30493 14.1219 3.99656 12.8199 4 11.5C4.00061 9.92179 4.44061 8.37488 5.27072 7.03258C6.10083 5.69028 7.28825 4.6056 8.7 3.90003C9.87812 3.30496 11.1801 2.99659 12.5 3.00003H13C15.0843 3.11502 17.053 3.99479 18.5291 5.47089C20.0052 6.94699 20.885 8.91568 21 11V11.5Z" stroke="black" stroke-width="2" stroke-linejoin="bevel"/>
<path d="M15.1869 13.3403C14.7751 14.5055 13.6638 15.3403 12.3576 15.3403C11.0514 15.3403 9.94016 14.5055 9.52832 13.3403" stroke="black" stroke-width="2"/>
<path d="M15.3574 9.34033H15.4074" stroke="black" stroke-width="2" stroke-linecap="square"/>
<path d="M9.35742 9.34033H9.40742" stroke="black" stroke-width="2" stroke-linecap="square"/>
</svg>
