{
  "type": "service_account",
  "project_id": "piqls-269714",
  "private_key_id": "ebc9ffdc18023a37b2e48a489a3d9f8724192ffc",
  "private_key": "-----BEGIN PRIVATE KEY-----\nMIIEvQIBADANBgkqhkiG9w0BAQEFAASCBKcwggSjAgEAAoIBAQDW1mT6CxXvhqcg\n8bDVmZ6vk111+5YbxhKRvg82t2rAdWos7e7NkTdgtmChEV//hFTsLge4oszlyPLQ\npnnjNZvZrEbgGBixDVXVjALPmo1OV6QP6JpNUERj8kTEhUsJNvtZWzzDr6DBYeGt\nRsa3NfcLrTdZNi8FG0N7g9Z0h5Z51AQneGsALjvwa/TcsT730SQJL1o6DFs8F8D1\nisYyCH/nufrxlUOEWOYRNCxHMnHcMeGjQKgQJD0UkiO362xZd8paTUDiAvrlqBEV\ngxjZjXI5OcMaS1s+kf2Kcs4HhaOBetsT1M0+ucO+8rEGv639PRDhaDuj+BPlpzOO\nA2Iroa9hAgMBAAECggEAGg7FDqL7lSLi8JcAGNhaK/eW1XGfglzi8bR4ye0zUIat\nSyfM2Dgt3FginkaqOybE2iS3IQj2C0T1VqNqk0l0TtGbgyDJFeiFKbKiwKWBUChH\nKPrQhGIg+XJwLtnwAP0fPXZYh2+s8ue5ZLf58EzmWw82cGanC1qEM94Iy/eKI9p/\nhFXOm6QGnkCdkeamH7uNOkPsxu2k2txrmyelFQIHyujmKvth/X/Qv2ctsJRLBlhQ\nHhFXihEBjTpLj0WidUPQg+HbEg1DJG2umRbjPCjfBNCtNhOdSxX4KDjvhuuudg3x\nSUoMz7HxXmVeHvSlJ+kIr+z+RZKuha0VeXo8mPX3wQKBgQDusA1AUGsZIV5JUOiL\nDmqGQ95GqULnB1gHs+BLD7Gt9odWKR7Q9Ewh3EquA4x3sKKHqODN+KnvPCOu9eDs\ngtunG38sR3PeF4mXe9YeDsczS+VnDrG+iSxWI8p+g9O3XmTq1IUqgtzUjkdSYUw+\nSGusibV7qrkSCTOBL/ubUU6daQKBgQDma34COOd8yA6sl5im0vbVO/TGT0zLTh4q\nsoFY4P2upadzKJPqkD/WCpjAY7mzGs1lbkx6G1MnnDZku9GyqVpI73Bt0L/2M3FO\nY1ymL+2H0VpZUNjZ+QUP9yjh3CgByZs5qv6rFU4aC2JX+Clki58JK68SdyNfPrkY\nJnQMcTArOQKBgCm76KU9Kmy7c+P33KErxR5y0XOjdso0c4TtQ6N8PAIB4AoFqJi6\njnFBNmGUx0PKQ7Daq2v4NaZZ6pdV8J0KCGQAn8zbNXw4u1scUQTyaowikhrh69w3\n2eO54Fccr7EZNSYGQL59ISWdNwVFc/JT8Ve6wFu+LxvjNfk5rZGrtsY5AoGActXj\nqQvfIqs51P6Aj7PYXJFS/nqLFU/LbRAlsrv+8kmQ2K3CekaF6hDB7DBHXmHfN8vu\nxXRUzwrlePK6IcaRPoRGjhRZd0RQFfcjN5fvU58c3iKS0J9wzHIrp9TnA20MtYLp\nBS7LC+PckWcWigujqRhiWluR/2ftK4IOmBzZGtECgYEA7oAEhsWpH7W59GFn0JOf\nAogrPGbXjmTrCdWrimTE09qO+rN1jyekxQcKZ34m289psFuxRAjVycbF+hOgFa4w\nrGzS1eCXU97v+huIBCOBph7fa84GSo46/1k3JIlUOtlkGovit5ZekDjiKNm1CYyw\nYIeIccZDKSiF8XeogDOMbXM=\n-----END PRIVATE KEY-----\n",
  "client_email": "piqls-pay@piqls-269714.iam.gserviceaccount.com",
  "client_id": "104437055254085144070",
  "auth_uri": "https://accounts.google.com/o/oauth2/auth",
  "token_uri": "https://oauth2.googleapis.com/token",
  "auth_provider_x509_cert_url": "https://www.googleapis.com/oauth2/v1/certs",
  "client_x509_cert_url": "https://www.googleapis.com/robot/v1/metadata/x509/piqls-pay%40piqls-269714.iam.gserviceaccount.com"
}
