<svg width="1024" height="1024" viewBox="0 0 1024 1024" fill="none" xmlns="http://www.w3.org/2000/svg">
<g clip-path="url(#clip0)">
<rect width="1024" height="1024" fill="#3937D0"/>
<path d="M735.278 780.922C756.092 763.787 770.186 739.806 786.061 719.41C802.473 698.348 811.364 673.766 822.415 650.212C833.662 626.273 843.905 603.02 849.506 577.526C855.134 551.925 854.951 526.646 854.761 500.53C854.577 474.522 862.317 447.294 856.281 421.837C850.342 396.777 838.446 372.692 826.709 349.149C815.36 326.354 796.386 308.124 779.528 287.647C762.67 267.169 746.466 247.557 726.258 232.055C705.39 216.03 683.91 201.687 660.474 191.032C636.637 180.202 613.116 166.361 587.628 161.184C562.034 155.983 534.705 165.205 508.486 165.795C482.391 166.396 455.68 161.468 430.027 167.908C404.79 174.229 381.295 187.173 357.504 199.236C334.452 210.916 311.18 223.367 290.349 240.517C269.535 257.652 250.789 276.538 234.9 296.917C218.488 317.979 204.427 340.614 193.376 364.167C182.129 388.106 173.85 413.363 168.249 438.858C162.621 464.458 166.98 490.65 167.169 516.767C167.354 542.775 166.419 568.357 172.455 593.814C178.394 618.875 180.14 646.432 191.859 669.989C203.208 692.785 225.025 709.825 241.884 730.302C258.742 750.779 275.891 769.529 296.099 785.031C316.967 801.056 338.901 814.323 362.324 824.961C386.161 835.791 411.4 840.387 436.874 845.547C462.468 850.748 487.567 864.357 513.772 863.751C539.867 863.15 565.774 852.824 591.411 846.399C616.648 840.077 643.571 835.595 667.376 823.548C690.509 811.829 714.464 798.058 735.278 780.922Z" stroke="#FAFF00" stroke-width="90" stroke-miterlimit="10"/>
<path d="M546.376 632.187L548.15 631.164L546.256 632.286L546.898 631.948L546.661 632.253L547.171 632.49L548.628 633.561L550.542 639.483L561.49 657.392L570.175 669.968L578.882 682.499L588.061 694.697L595.994 707.756L607.299 720.719L623.951 726.765L641.385 722.617L657.332 716L668.761 702.952L675.087 687.128L676.676 669.951L670.759 653.509L661.901 643.099L652.72 632.819L646.891 620.326L638.418 609.545L630.097 591.962L626.99 587.489L624.876 587.123L627.366 585.292L626.662 585.625L627.226 585.051L626.563 585.679L614.023 574.498L599.424 566.79L582.478 565.802L566.246 571.724L551.763 582.005L544.672 598.158L542.133 615.297L547.59 631.461L546.376 632.187ZM582.213 611.657L583.795 611.203L582.213 611.657Z" fill="#4DFF0F"/>
<path d="M397.135 463.694L396.885 464.228L396.889 464.198L396.816 464.284L397.193 463.345L397.145 463.111L397.172 462.131L395.225 463.679L391.4 462.177L377.136 456.656L363.049 452.33L348.91 448.183L335.008 443.349L320.459 440.416L303.519 436.851L286.406 442.54L272.171 453.822L265.509 470.25L261.815 487.245L267.334 503.414L277.811 516.594L293.36 523.082L306.153 527.653L318.978 532.088L331.929 536.118L345.272 539.087L356.988 544.9L359.844 545.75L360.19 546.45L360.578 545.802L360.606 545.697L360.642 545.531L360.022 546.944L360.929 545.321L361.115 544.429L377.558 547.391L395.184 546.341L409.249 535.063L419.921 520.886L422.824 503.804L419.572 487.384L411.132 473.046L397.135 463.694Z" fill="#4DFF0F"/>
<path d="M491.522 395.975L491.533 413.559L499.658 428.703L511.713 440.83L528.285 446.394L545.794 443.909L562.517 437.501L573.327 423.212L579.292 407.056L583.536 392.755L584.715 378.049L588.548 363.703L590.12 349.057L594.398 334.728L594.379 319.859L596.296 302.522L589.115 286.71L575.226 276.721L559.173 271.961L541.813 270.959L525.611 278.908L512.806 291.857L508.553 309.011L505.28 323.443L502.707 337.956L498.734 352.307L498.618 367.151L494.903 381.536L491.522 395.975Z" fill="#4DFF0F"/>
<path d="M542.299 673.963L542.749 654.879L545.797 649.36L543.656 647.702L544.503 647.334L544.225 647.206L546.053 647.261L544.626 647.204L543.717 647.078L543.723 647.155L541.849 630.558L535.673 614.603L520.783 606.122L504.574 601.628L487.215 603.141L471.391 611.654L460.543 626.002L454.75 642.892L455.884 642.943L457.046 643.027L456.696 642.986L454.672 642.902L455.167 643.014L455.642 643.417L457.121 644.935L455.75 650.359L452.697 668.796L452.435 684.197L448.349 699.353L448.25 714.811L447.921 732.155L457.417 746.17L469.905 756.902L485.928 761.659L502.95 760.121L518.419 752.12L529.346 738.637L535.725 722.633L538.975 706.496L539.613 690.156L542.299 673.963Z" fill="#4DFF0F"/>
<path d="M610.404 521.067L606.685 537.507L611.285 553.502L620.742 567.331L635.993 574.748L636.483 573.387L635.432 576.441L636.599 573.073L635.83 575.457L635.51 576.815L636.441 575.501L637.446 577.246L643.373 576.306L661.624 580.487L675.076 586.732L689.88 588.088L704.566 589.65L719.197 591.284L736.806 593.915L751.807 583.425L765.663 571.963L770.656 554.939L768.95 538.231L763.946 522.268L752.75 508.913L734.947 507.373L719.134 501.02L701.839 501.25L686.558 493.83L670.699 490.634L666.566 489.386L665.538 489.22L665.134 489.744L664.505 491.493L665.303 489.249L664.683 490.662L665.236 489.413L649.858 489.351L635.247 493.364L637.859 492.171L649.908 483.264L660.603 472.434L672.531 463.38L685.987 456.461L697.356 446.554L709.75 438.101L721.736 425.17L729.117 409.161L726.957 392.252L723.222 375.245L710.299 363.285L693.209 358.804L675.533 359.129L658.58 366.026L647.359 376.113L634.285 383.566L624.249 395.302L611.819 403.676L599.07 411.627L585.925 419.029L576.398 434.177L566.071 449.054L567.636 466.672L576.518 480.919L585.257 491.919L598.417 497.529L612.79 498.117L626.487 496.417L616.876 507.585L610.404 521.067Z" fill="#4DFF0F"/>
<path d="M389.786 405.585L398.126 417.707L403.628 431.865L406.514 446.862L412.784 462.686L425.442 474.044L441.527 480.309L459.241 479.297L475.304 471.353L487.16 458.09L492.777 441.755L494.837 424.382L492.46 410.388L485.337 397.893L481.753 384.319L478.325 370.479L472.043 357.784L463.075 346.891L452.266 338.197L445.964 325.792L439.134 314.178L428.086 300.619L412.228 293.127L394.647 293.429L377.881 298.422L364.979 310.275L357.029 325.383L353.109 342.208L358.082 358.553L365.183 370.846L372.458 383.106L381.075 394.48L389.786 405.585Z" fill="#4DFF0F"/>
<path d="M467.697 562.677L455.696 550.231L438.996 545.594L421.725 545.119L405.893 552.819L405.1 551.611L406.221 553.287L405.645 552.448L404.633 551.01L405.711 552.913L404.081 551.492L402.208 552.569L396.474 558.11L386.496 566.353L374.9 572.178L363.665 582.632L349.519 588.887L337.403 598.096L326.316 608.591L313.928 621.417L309.137 638.302L310.369 655.237L318.179 669.929L329.923 682.203L346.692 687.167L364.625 686.001L378.818 674.809L394.4 665.373L409.515 655.475L424.241 644.965L433.951 637.163L443.506 629.105L450.746 626.372L451.999 624.575L452.042 623.719L453.627 625.889L452.423 624.008L452.747 624.506L451.611 624.594L453.473 625.633L464.471 611.572L474.134 596.448L472.063 579.192L467.697 562.677Z" fill="#4DFF0F"/>
</g>
<defs>
<clipPath id="clip0">
<rect width="1024" height="1024" fill="white"/>
</clipPath>
</defs>
</svg>

